// Jest Snapshot v1, https://goo.gl/fbAQLP

exports[`Test catalog check render Catalog 1`] = `
<div>
  <div
    class="css-1u6yw0q"
  >
    <div
      class="css-1vkur5n"
    >
      <div
        class="css-dnwm8"
      >
        <div
          class="css-1tcpgsp"
        >
          Welcome to
        </div>
        <div
          class="css-1avd1tb"
        >
          LeetCode Explore
        </div>
      </div>
      <div
        class="css-1vibt05"
      >
        <div
          class="css-13j9964"
        >
          <a
            class="css-1vj5adk"
            href=""
          >
            <img
              class="css-jk15m4"
              src="file"
            />
          </a>
          <a
            class="css-15berb9"
            href=""
          >
            <img
              class="css-tgob9d"
              src="file"
            />
          </a>
        </div>
      </div>
    </div>
    <div
      class="css-1asq7v1"
    />
    <div
      class="MuiBox-root css-uyf62l"
    >
      <div
        class="MuiBox-root css-gcew5p"
      >
        <span
          class="MuiSkeleton-root MuiSkeleton-text MuiSkeleton-pulse css-1n7gpw1-MuiSkeleton-root"
          style="width: 110px; height: 50px;"
        />
        <span
          class="MuiSkeleton-root MuiSkeleton-rectangular MuiSkeleton-pulse css-58ftfq-MuiSkeleton-root"
          style="height: 100px;"
        />
      </div>
      <div
        class="MuiBox-root css-l2foyk"
      >
        <span
          class="MuiSkeleton-root MuiSkeleton-text MuiSkeleton-pulse css-1n7gpw1-MuiSkeleton-root"
          style="width: 1140px; height: 150px;"
        />
      </div>
      <span
        class="MuiSkeleton-root MuiSkeleton-text MuiSkeleton-pulse css-1n7gpw1-MuiSkeleton-root"
        style="width: 1140px; height: 400px;"
      />
    </div>
  </div>
</div>
`;

exports[`Test catalog check render Catalog 2`] = `
<div>
  <div
    class="css-1u6yw0q"
  >
    <div
      class="css-1vkur5n"
    >
      <div
        class="css-dnwm8"
      >
        <div
          class="css-1tcpgsp"
        >
          Welcome to
        </div>
        <div
          class="css-1avd1tb"
        >
          LeetCode Explore
        </div>
      </div>
      <div
        class="css-1vibt05"
      >
        <div
          class="css-13j9964"
        >
          <a
            class="css-1vj5adk"
            href=""
          >
            <img
              class="css-jk15m4"
              src="file"
            />
          </a>
          <a
            class="css-15berb9"
            href=""
          >
            <img
              class="css-tgob9d"
              src="file"
            />
          </a>
        </div>
      </div>
    </div>
    <div
      class="css-1asq7v1"
    />
    <div
      class="MuiGrid-root css-d8nf2g-MuiGrid-root"
    >
      <div>
        <div
          class="css-1ynyqeg"
        >
          <div
            class="css-9klcse"
          >
            Featured
          </div>
          <a
            class="css-1gtyrbm"
            href=""
          >
            <div
              class="css-1ocz5x5"
            >
              More
            </div>
          </a>
        </div>
        <div
          class="css-1c6wtw7"
        >
          <div
            class="MuiPaper-root MuiPaper-elevation MuiPaper-rounded MuiPaper-elevation1 MuiCard-root css-1vjqg3h-MuiPaper-root-MuiCard-root"
          >
            <img
              alt="card media"
              class="MuiCardMedia-root MuiCardMedia-media MuiCardMedia-img css-1kfi1ow-MuiCardMedia-root"
              src="/remote-assets/images/catalog/featured1.svg"
            />
            <div
              class="MuiCardContent-root css-1umxd0v-MuiCardContent-root"
            >
              <h6
                class="MuiTypography-root MuiTypography-h6 css-1pgfh57-MuiTypography-root"
              >
                Detailed Explanation of
              </h6>
              <h4
                class="MuiTypography-root MuiTypography-h4 css-16c9425-MuiTypography-root"
              >
                Dynamic Programming
              </h4>
            </div>
            <div
              class="MuiGrid-root MuiGrid-container css-12qzknf-MuiGrid-root"
            >
              <div
                class="MuiBox-root css-1ees8as"
              >
                6
              </div>
              <div
                class="MuiBox-root css-1ees8as"
              >
                55
              </div>
              <div
                class="MuiBox-root css-1ees8as"
              />
              <div
                class="MuiBox-root css-9gauht"
              >
                Chapter
              </div>
              <div
                class="MuiBox-root css-9gauht"
              >
                Items
              </div>
              <div
                class="MuiBox-root css-9gauht"
              >
                0
                %
              </div>
            </div>
            <a
              class="MuiButton-root MuiButton-contained MuiButton-containedInherit MuiButton-sizeMedium MuiButton-containedSizeMedium MuiButton-colorInherit MuiButtonBase-root css-h2jha2-MuiButtonBase-root-MuiButton-root"
              href="/coder/topics/dynamic-programming/"
              tabindex="0"
            >
              <div
                class="MuiCardMedia-root css-jv9wql-MuiCardMedia-root"
                color="green"
                role="img"
                style="background-image: url(file);"
              />
              <span
                class="MuiTouchRipple-root css-8je8zh-MuiTouchRipple-root"
              />
            </a>
          </div>
          <div
            class="MuiPaper-root MuiPaper-elevation MuiPaper-rounded MuiPaper-elevation1 MuiCard-root css-1vjqg3h-MuiPaper-root-MuiCard-root"
          >
            <img
              alt="card media"
              class="MuiCardMedia-root MuiCardMedia-media MuiCardMedia-img css-1kfi1ow-MuiCardMedia-root"
              src="/remote-assets/images/catalog/featured2.svg"
            />
            <div
              class="MuiCardContent-root css-1umxd0v-MuiCardContent-root"
            >
              <h6
                class="MuiTypography-root MuiTypography-h6 css-1pgfh57-MuiTypography-root"
              >
                Detailed Explanation of
              </h6>
              <h4
                class="MuiTypography-root MuiTypography-h4 css-16c9425-MuiTypography-root"
              >
                Heap
              </h4>
            </div>
            <div
              class="MuiGrid-root MuiGrid-container css-12qzknf-MuiGrid-root"
            >
              <div
                class="MuiBox-root css-1ees8as"
              >
                4
              </div>
              <div
                class="MuiBox-root css-1ees8as"
              >
                28
              </div>
              <div
                class="MuiBox-root css-1ees8as"
              />
              <div
                class="MuiBox-root css-9gauht"
              >
                Chapter
              </div>
              <div
                class="MuiBox-root css-9gauht"
              >
                Items
              </div>
              <div
                class="MuiBox-root css-9gauht"
              >
                0
                %
              </div>
            </div>
            <a
              class="MuiButton-root MuiButton-contained MuiButton-containedInherit MuiButton-sizeMedium MuiButton-containedSizeMedium MuiButton-colorInherit MuiButtonBase-root css-h2jha2-MuiButtonBase-root-MuiButton-root"
              href="/coder/topics/heap/"
              tabindex="0"
            >
              <div
                class="MuiCardMedia-root css-jv9wql-MuiCardMedia-root"
                color="green"
                role="img"
                style="background-image: url(file);"
              />
              <span
                class="MuiTouchRipple-root css-8je8zh-MuiTouchRipple-root"
              />
            </a>
          </div>
          <div
            class="MuiPaper-root MuiPaper-elevation MuiPaper-rounded MuiPaper-elevation1 MuiCard-root css-1vjqg3h-MuiPaper-root-MuiCard-root"
          >
            <img
              alt="card media"
              class="MuiCardMedia-root MuiCardMedia-media MuiCardMedia-img css-1kfi1ow-MuiCardMedia-root"
              src="/remote-assets/images/catalog/featured3.svg"
            />
            <div
              class="MuiCardContent-root css-1umxd0v-MuiCardContent-root"
            >
              <h6
                class="MuiTypography-root MuiTypography-h6 css-1pgfh57-MuiTypography-root"
              >
                Detailed Explanation of
              </h6>
              <h4
                class="MuiTypography-root MuiTypography-h4 css-16c9425-MuiTypography-root"
              >
                Graph
              </h4>
            </div>
            <div
              class="MuiGrid-root MuiGrid-container css-12qzknf-MuiGrid-root"
            >
              <div
                class="MuiBox-root css-1ees8as"
              >
                6
              </div>
              <div
                class="MuiBox-root css-1ees8as"
              >
                58
              </div>
              <div
                class="MuiBox-root css-1ees8as"
              />
              <div
                class="MuiBox-root css-9gauht"
              >
                Chapter
              </div>
              <div
                class="MuiBox-root css-9gauht"
              >
                Items
              </div>
              <div
                class="MuiBox-root css-9gauht"
              >
                0
                %
              </div>
            </div>
            <a
              class="MuiButton-root MuiButton-contained MuiButton-containedInherit MuiButton-sizeMedium MuiButton-containedSizeMedium MuiButton-colorInherit MuiButtonBase-root css-h2jha2-MuiButtonBase-root-MuiButton-root"
              href="/coder/topics/graph/"
              tabindex="0"
            >
              <div
                class="MuiCardMedia-root css-jv9wql-MuiCardMedia-root"
                color="green"
                role="img"
                style="background-image: url(file);"
              />
              <span
                class="MuiTouchRipple-root css-8je8zh-MuiTouchRipple-root"
              />
            </a>
          </div>
          <div
            class="MuiPaper-root MuiPaper-elevation MuiPaper-rounded MuiPaper-elevation1 MuiCard-root css-1vjqg3h-MuiPaper-root-MuiCard-root"
          >
            <img
              alt="card media"
              class="MuiCardMedia-root MuiCardMedia-media MuiCardMedia-img css-1kfi1ow-MuiCardMedia-root"
              src="/remote-assets/images/catalog/featured4.svg"
            />
            <div
              class="MuiCardContent-root css-1umxd0v-MuiCardContent-root"
            >
              <h6
                class="MuiTypography-root MuiTypography-h6 css-1pgfh57-MuiTypography-root"
              >
                Introductuion to Data Structure
              </h6>
              <h4
                class="MuiTypography-root MuiTypography-h4 css-16c9425-MuiTypography-root"
              >
                Arrays 101
              </h4>
            </div>
            <div
              class="MuiGrid-root MuiGrid-container css-12qzknf-MuiGrid-root"
            >
              <div
                class="MuiBox-root css-1ees8as"
              >
                6
              </div>
              <div
                class="MuiBox-root css-1ees8as"
              >
                31
              </div>
              <div
                class="MuiBox-root css-1ees8as"
              />
              <div
                class="MuiBox-root css-9gauht"
              >
                Chapter
              </div>
              <div
                class="MuiBox-root css-9gauht"
              >
                Items
              </div>
              <div
                class="MuiBox-root css-9gauht"
              >
                0
                %
              </div>
            </div>
            <a
              class="MuiButton-root MuiButton-contained MuiButton-containedInherit MuiButton-sizeMedium MuiButton-containedSizeMedium MuiButton-colorInherit MuiButtonBase-root css-h2jha2-MuiButtonBase-root-MuiButton-root"
              href="/coder/card/fun-with-arrays/"
              tabindex="0"
            >
              <div
                class="MuiCardMedia-root css-jv9wql-MuiCardMedia-root"
                color="green"
                role="img"
                style="background-image: url(file);"
              />
              <span
                class="MuiTouchRipple-root css-8je8zh-MuiTouchRipple-root"
              />
            </a>
          </div>
        </div>
      </div>
      <div>
        <div
          class="css-1ynyqeg"
        >
          <div
            class="css-9klcse"
          >
            Interview
          </div>
          <a
            class="css-1gtyrbm"
            href=""
          >
            <div
              class="css-1ocz5x5"
            >
              More
            </div>
          </a>
        </div>
        <div
          class="css-1c6wtw7"
        >
          <div
            class="MuiPaper-root MuiPaper-elevation MuiPaper-rounded MuiPaper-elevation1 MuiCard-root css-1vjqg3h-MuiPaper-root-MuiCard-root"
          >
            <div
              class="MuiBox-root css-1h45kis"
            >
              Premium
            </div>
            <img
              alt="card media"
              class="MuiCardMedia-root MuiCardMedia-media MuiCardMedia-img css-1kfi1ow-MuiCardMedia-root"
              src="/remote-assets/images/catalog/interview1.svg"
            />
            <div
              class="MuiCardContent-root css-1umxd0v-MuiCardContent-root"
            >
              <h6
                class="MuiTypography-root MuiTypography-h6 css-1pgfh57-MuiTypography-root"
              >
                Get Well Prepared for
              </h6>
              <h4
                class="MuiTypography-root MuiTypography-h4 css-16c9425-MuiTypography-root"
              >
                Google Interview
              </h4>
            </div>
            <div
              class="MuiGrid-root MuiGrid-container css-12qzknf-MuiGrid-root"
            >
              <div
                class="MuiBox-root css-1ees8as"
              >
                6
              </div>
              <div
                class="MuiBox-root css-1ees8as"
              >
                55
              </div>
              <div
                class="MuiBox-root css-1ees8as"
              />
              <div
                class="MuiBox-root css-9gauht"
              >
                Chapter
              </div>
              <div
                class="MuiBox-root css-9gauht"
              >
                Items
              </div>
              <div
                class="MuiBox-root css-9gauht"
              >
                Locked
              </div>
            </div>
            <a
              class="MuiButton-root MuiButton-contained MuiButton-containedInherit MuiButton-sizeMedium MuiButton-containedSizeMedium MuiButton-colorInherit MuiButtonBase-root css-h2jha2-MuiButtonBase-root-MuiButton-root"
              href="coder/interview/card/google/"
              tabindex="0"
            >
              <div
                class="MuiCardMedia-root css-jv9wql-MuiCardMedia-root"
                role="img"
                style="background-image: url(file);"
              />
              <span
                class="MuiTouchRipple-root css-8je8zh-MuiTouchRipple-root"
              />
            </a>
          </div>
          <div
            class="MuiPaper-root MuiPaper-elevation MuiPaper-rounded MuiPaper-elevation1 MuiCard-root css-1vjqg3h-MuiPaper-root-MuiCard-root"
          >
            <div
              class="MuiBox-root css-1h45kis"
            >
              Premium
            </div>
            <img
              alt="card media"
              class="MuiCardMedia-root MuiCardMedia-media MuiCardMedia-img css-1kfi1ow-MuiCardMedia-root"
              src="/remote-assets/images/catalog/interview2.svg"
            />
            <div
              class="MuiCardContent-root css-1umxd0v-MuiCardContent-root"
            >
              <h6
                class="MuiTypography-root MuiTypography-h6 css-1pgfh57-MuiTypography-root"
              >
                Get Well Prepared for
              </h6>
              <h4
                class="MuiTypography-root MuiTypography-h4 css-16c9425-MuiTypography-root"
              >
                Facebook
              </h4>
            </div>
            <div
              class="MuiGrid-root MuiGrid-container css-12qzknf-MuiGrid-root"
            >
              <div
                class="MuiBox-root css-1ees8as"
              >
                6
              </div>
              <div
                class="MuiBox-root css-1ees8as"
              >
                55
              </div>
              <div
                class="MuiBox-root css-1ees8as"
              />
              <div
                class="MuiBox-root css-9gauht"
              >
                Chapter
              </div>
              <div
                class="MuiBox-root css-9gauht"
              >
                Items
              </div>
              <div
                class="MuiBox-root css-9gauht"
              >
                Locked
              </div>
            </div>
            <a
              class="MuiButton-root MuiButton-contained MuiButton-containedInherit MuiButton-sizeMedium MuiButton-containedSizeMedium MuiButton-colorInherit MuiButtonBase-root css-h2jha2-MuiButtonBase-root-MuiButton-root"
              href="coder/interview/card/facebook/"
              tabindex="0"
            >
              <div
                class="MuiCardMedia-root css-jv9wql-MuiCardMedia-root"
                role="img"
                style="background-image: url(file);"
              />
              <span
                class="MuiTouchRipple-root css-8je8zh-MuiTouchRipple-root"
              />
            </a>
          </div>
          <div
            class="MuiPaper-root MuiPaper-elevation MuiPaper-rounded MuiPaper-elevation1 MuiCard-root css-1vjqg3h-MuiPaper-root-MuiCard-root"
          >
            <div
              class="MuiBox-root css-1h45kis"
            >
              Premium
            </div>
            <img
              alt="card media"
              class="MuiCardMedia-root MuiCardMedia-media MuiCardMedia-img css-1kfi1ow-MuiCardMedia-root"
              src="/remote-assets/images/catalog/interview3.svg"
            />
            <div
              class="MuiCardContent-root css-1umxd0v-MuiCardContent-root"
            >
              <h6
                class="MuiTypography-root MuiTypography-h6 css-1pgfh57-MuiTypography-root"
              >
                Top Questions from
              </h6>
              <h4
                class="MuiTypography-root MuiTypography-h4 css-16c9425-MuiTypography-root"
              >
                Microsoft
              </h4>
            </div>
            <div
              class="MuiGrid-root MuiGrid-container css-12qzknf-MuiGrid-root"
            >
              <div
                class="MuiBox-root css-1ees8as"
              >
                6
              </div>
              <div
                class="MuiBox-root css-1ees8as"
              >
                55
              </div>
              <div
                class="MuiBox-root css-1ees8as"
              />
              <div
                class="MuiBox-root css-9gauht"
              >
                Chapter
              </div>
              <div
                class="MuiBox-root css-9gauht"
              >
                Items
              </div>
              <div
                class="MuiBox-root css-9gauht"
              >
                Locked
              </div>
            </div>
            <a
              class="MuiButton-root MuiButton-contained MuiButton-containedInherit MuiButton-sizeMedium MuiButton-containedSizeMedium MuiButton-colorInherit MuiButtonBase-root css-h2jha2-MuiButtonBase-root-MuiButton-root"
              href="coder/interview/card/microsoft/"
              tabindex="0"
            >
              <div
                class="MuiCardMedia-root css-jv9wql-MuiCardMedia-root"
                role="img"
                style="background-image: url(file);"
              />
              <span
                class="MuiTouchRipple-root css-8je8zh-MuiTouchRipple-root"
              />
            </a>
          </div>
          <div
            class="MuiPaper-root MuiPaper-elevation MuiPaper-rounded MuiPaper-elevation1 MuiCard-root css-1vjqg3h-MuiPaper-root-MuiCard-root"
          >
            <div
              class="MuiBox-root css-1h45kis"
            >
              Premium
            </div>
            <img
              alt="card media"
              class="MuiCardMedia-root MuiCardMedia-media MuiCardMedia-img css-1kfi1ow-MuiCardMedia-root"
              src="/remote-assets/images/catalog/interview4.svg"
            />
            <div
              class="MuiCardContent-root css-1umxd0v-MuiCardContent-root"
            >
              <h6
                class="MuiTypography-root MuiTypography-h6 css-1pgfh57-MuiTypography-root"
              >
                Top Questions from
              </h6>
              <h4
                class="MuiTypography-root MuiTypography-h4 css-16c9425-MuiTypography-root"
              >
                Amazon
              </h4>
            </div>
            <div
              class="MuiGrid-root MuiGrid-container css-12qzknf-MuiGrid-root"
            >
              <div
                class="MuiBox-root css-1ees8as"
              >
                8
              </div>
              <div
                class="MuiBox-root css-1ees8as"
              >
                68
              </div>
              <div
                class="MuiBox-root css-1ees8as"
              />
              <div
                class="MuiBox-root css-9gauht"
              >
                Chapter
              </div>
              <div
                class="MuiBox-root css-9gauht"
              >
                Items
              </div>
              <div
                class="MuiBox-root css-9gauht"
              >
                Locked
              </div>
            </div>
            <a
              class="MuiButton-root MuiButton-contained MuiButton-containedInherit MuiButton-sizeMedium MuiButton-containedSizeMedium MuiButton-colorInherit MuiButtonBase-root css-h2jha2-MuiButtonBase-root-MuiButton-root"
              href="coder/interview/card/amazon/"
              tabindex="0"
            >
              <div
                class="MuiCardMedia-root css-jv9wql-MuiCardMedia-root"
                role="img"
                style="background-image: url(file);"
              />
              <span
                class="MuiTouchRipple-root css-8je8zh-MuiTouchRipple-root"
              />
            </a>
          </div>
        </div>
      </div>
      <div>
        <div
          class="css-1ynyqeg"
        >
          <div
            class="css-9klcse"
          >
            Learn
          </div>
          <a
            class="css-1gtyrbm"
            href=""
          >
            <div
              class="css-1ocz5x5"
            >
              More
            </div>
          </a>
        </div>
        <div
          class="css-1c6wtw7"
        >
          <div
            class="MuiPaper-root MuiPaper-elevation MuiPaper-rounded MuiPaper-elevation1 MuiCard-root css-1vjqg3h-MuiPaper-root-MuiCard-root"
          >
            <img
              alt="card media"
              class="MuiCardMedia-root MuiCardMedia-media MuiCardMedia-img css-1kfi1ow-MuiCardMedia-root"
              src="/remote-assets/images/catalog/learn1.svg"
            />
            <div
              class="MuiCardContent-root css-1umxd0v-MuiCardContent-root"
            >
              <h6
                class="MuiTypography-root MuiTypography-h6 css-1pgfh57-MuiTypography-root"
              >
                Detailed Explanation of
              </h6>
              <h4
                class="MuiTypography-root MuiTypography-h4 css-16c9425-MuiTypography-root"
              >
                Graph
              </h4>
            </div>
            <div
              class="MuiGrid-root MuiGrid-container css-12qzknf-MuiGrid-root"
            >
              <div
                class="MuiBox-root css-1ees8as"
              >
                6
              </div>
              <div
                class="MuiBox-root css-1ees8as"
              >
                58
              </div>
              <div
                class="MuiBox-root css-1ees8as"
              />
              <div
                class="MuiBox-root css-9gauht"
              >
                Chapter
              </div>
              <div
                class="MuiBox-root css-9gauht"
              >
                Items
              </div>
              <div
                class="MuiBox-root css-9gauht"
              >
                0
                %
              </div>
            </div>
            <a
              class="MuiButton-root MuiButton-contained MuiButton-containedInherit MuiButton-sizeMedium MuiButton-containedSizeMedium MuiButton-colorInherit MuiButtonBase-root css-h2jha2-MuiButtonBase-root-MuiButton-root"
              href="coder/learn/card/graph"
              tabindex="0"
            >
              <div
                class="MuiCardMedia-root css-jv9wql-MuiCardMedia-root"
                color="green"
                role="img"
                style="background-image: url(file);"
              />
              <span
                class="MuiTouchRipple-root css-8je8zh-MuiTouchRipple-root"
              />
            </a>
          </div>
          <div
            class="MuiPaper-root MuiPaper-elevation MuiPaper-rounded MuiPaper-elevation1 MuiCard-root css-1vjqg3h-MuiPaper-root-MuiCard-root"
          >
            <img
              alt="card media"
              class="MuiCardMedia-root MuiCardMedia-media MuiCardMedia-img css-1kfi1ow-MuiCardMedia-root"
              src="/remote-assets/images/catalog/learn2.svg"
            />
            <div
              class="MuiCardContent-root css-1umxd0v-MuiCardContent-root"
            >
              <h6
                class="MuiTypography-root MuiTypography-h6 css-1pgfh57-MuiTypography-root"
              >
                Introductuion to Data Structure
              </h6>
              <h4
                class="MuiTypography-root MuiTypography-h4 css-16c9425-MuiTypography-root"
              >
                Arrays 101
              </h4>
            </div>
            <div
              class="MuiGrid-root MuiGrid-container css-12qzknf-MuiGrid-root"
            >
              <div
                class="MuiBox-root css-1ees8as"
              >
                6
              </div>
              <div
                class="MuiBox-root css-1ees8as"
              >
                55
              </div>
              <div
                class="MuiBox-root css-1ees8as"
              />
              <div
                class="MuiBox-root css-9gauht"
              >
                Chapter
              </div>
              <div
                class="MuiBox-root css-9gauht"
              >
                Items
              </div>
              <div
                class="MuiBox-root css-9gauht"
              >
                0
                %
              </div>
            </div>
            <a
              class="MuiButton-root MuiButton-contained MuiButton-containedInherit MuiButton-sizeMedium MuiButton-containedSizeMedium MuiButton-colorInherit MuiButtonBase-root css-h2jha2-MuiButtonBase-root-MuiButton-root"
              href="coder/learn/card/fun-with-arrays"
              tabindex="0"
            >
              <div
                class="MuiCardMedia-root css-jv9wql-MuiCardMedia-root"
                color="green"
                role="img"
                style="background-image: url(file);"
              />
              <span
                class="MuiTouchRipple-root css-8je8zh-MuiTouchRipple-root"
              />
            </a>
          </div>
          <div
            class="MuiPaper-root MuiPaper-elevation MuiPaper-rounded MuiPaper-elevation1 MuiCard-root css-1vjqg3h-MuiPaper-root-MuiCard-root"
          >
            <img
              alt="card media"
              class="MuiCardMedia-root MuiCardMedia-media MuiCardMedia-img css-1kfi1ow-MuiCardMedia-root"
              src="/remote-assets/images/catalog/learn3.svg"
            />
            <div
              class="MuiCardContent-root css-1umxd0v-MuiCardContent-root"
            >
              <h6
                class="MuiTypography-root MuiTypography-h6 css-1pgfh57-MuiTypography-root"
              >
                Introductuion to Data Structure
              </h6>
              <h4
                class="MuiTypography-root MuiTypography-h4 css-16c9425-MuiTypography-root"
              >
                Linked List
              </h4>
            </div>
            <div
              class="MuiGrid-root MuiGrid-container css-12qzknf-MuiGrid-root"
            >
              <div
                class="MuiBox-root css-1ees8as"
              >
                6
              </div>
              <div
                class="MuiBox-root css-1ees8as"
              >
                55
              </div>
              <div
                class="MuiBox-root css-1ees8as"
              />
              <div
                class="MuiBox-root css-9gauht"
              >
                Chapter
              </div>
              <div
                class="MuiBox-root css-9gauht"
              >
                Items
              </div>
              <div
                class="MuiBox-root css-9gauht"
              >
                0
                %
              </div>
            </div>
            <a
              class="MuiButton-root MuiButton-contained MuiButton-containedInherit MuiButton-sizeMedium MuiButton-containedSizeMedium MuiButton-colorInherit MuiButtonBase-root css-h2jha2-MuiButtonBase-root-MuiButton-root"
              href="coder/learn/card/linked-list"
              tabindex="0"
            >
              <div
                class="MuiCardMedia-root css-jv9wql-MuiCardMedia-root"
                color="green"
                role="img"
                style="background-image: url(file);"
              />
              <span
                class="MuiTouchRipple-root css-8je8zh-MuiTouchRipple-root"
              />
            </a>
          </div>
          <div
            class="MuiPaper-root MuiPaper-elevation MuiPaper-rounded MuiPaper-elevation1 MuiCard-root css-1vjqg3h-MuiPaper-root-MuiCard-root"
          >
            <img
              alt="card media"
              class="MuiCardMedia-root MuiCardMedia-media MuiCardMedia-img css-1kfi1ow-MuiCardMedia-root"
              src="/remote-assets/images/catalog/learn4.svg"
            />
            <div
              class="MuiCardContent-root css-1umxd0v-MuiCardContent-root"
            >
              <h6
                class="MuiTypography-root MuiTypography-h6 css-1pgfh57-MuiTypography-root"
              >
                Introductuion to Data Structure
              </h6>
              <h4
                class="MuiTypography-root MuiTypography-h4 css-16c9425-MuiTypography-root"
              >
                Binary Tree
              </h4>
            </div>
            <div
              class="MuiGrid-root MuiGrid-container css-12qzknf-MuiGrid-root"
            >
              <div
                class="MuiBox-root css-1ees8as"
              >
                6
              </div>
              <div
                class="MuiBox-root css-1ees8as"
              >
                55
              </div>
              <div
                class="MuiBox-root css-1ees8as"
              />
              <div
                class="MuiBox-root css-9gauht"
              >
                Chapter
              </div>
              <div
                class="MuiBox-root css-9gauht"
              >
                Items
              </div>
              <div
                class="MuiBox-root css-9gauht"
              >
                0
                %
              </div>
            </div>
            <a
              class="MuiButton-root MuiButton-contained MuiButton-containedInherit MuiButton-sizeMedium MuiButton-containedSizeMedium MuiButton-colorInherit MuiButtonBase-root css-h2jha2-MuiButtonBase-root-MuiButton-root"
              href="coder/learn/card/data-structure-tree"
              tabindex="0"
            >
              <div
                class="MuiCardMedia-root css-jv9wql-MuiCardMedia-root"
                color="green"
                role="img"
                style="background-image: url(file);"
              />
              <span
                class="MuiTouchRipple-root css-8je8zh-MuiTouchRipple-root"
              />
            </a>
          </div>
        </div>
      </div>
    </div>
  </div>
</div>
`;
